{
    "swagger": "2.0",
    "info": {
        "contact": {}
    },
    "basePath": "isaving/v1/ssv1000010",
    "paths": {
        "/ssv1000010/SV100010": {
            "post": {
                "tags": [
                    "ssv1000010"
                ],
                "description": "Entry",
                "parameters": [
                    {
                        "in": "body",
                        "name": "Ssv1000010",
                        "description": "body for model content",
                        "required": true,
                        "schema": {
                            "$ref": "#/definitions/models.SSV1000010I"
                        }
                    }
                ],
                "responses": {
                    "200": {
                        "description": "",
                        "schema": {
                            "$ref": "#/definitions/models.SSV1000010O"
                        }
                    }
                }
            }
        },
        "/ssv1000010/create": {
            "post": {
                "tags": [
                    "ssv1000010"
                ],
                "description": "ssv1000010 controller",
                "operationId": "Ssv1000010Controller.Ssv1000010 Controller",
                "parameters": [
                    {
                        "in": "body",
                        "name": "Ssv1000010",
                        "description": "true",
                        "schema": {
                            "$ref": "#/definitions/models.SSV1000010I"
                        }
                    }
                ],
                "responses": {
                    "200": {
                        "description": "",
                        "schema": {
                            "$ref": "#/definitions/models.SSV1000010O"
                        }
                    }
                }
            }
        }
    },
    "definitions": {
        "models.SSV1000010I": {
            "title": "SSV1000010I",
            "type": "object",
            "properties": {
                "AListAddr": {
                    "type": "array",
                    "items": {
                        "$ref": "#/definitions/models.SSV1000010IAListAddr"
                    }
                },
                "AListContact": {
                    "type": "array",
                    "items": {
                        "$ref": "#/definitions/models.SSV1000010IAListContact"
                    }
                },
                "Account": {
                    "type": "string"
                },
                "CustId": {
                    "type": "string"
                },
                "ObjPublic": {
                    "$ref": "#/definitions/models.SSV1000010IObjPublic"
                }
            }
        },
        "models.SSV1000010IAListAddr": {
            "title": "SSV1000010IAListAddr",
            "type": "object",
            "properties": {
                "Addr": {
                    "type": "string"
                },
                "AddrType": {
                    "type": "string"
                },
                "City": {
                    "type": "string"
                },
                "ContactId": {
                    "type": "string"
                },
                "District": {
                    "type": "string"
                },
                "NationCode": {
                    "type": "string"
                },
                "Province": {
                    "type": "string"
                }
            }
        },
        "models.SSV1000010IAListContact": {
            "title": "SSV1000010IAListContact",
            "type": "object",
            "properties": {
                "Contact": {
                    "type": "string"
                },
                "ContactId": {
                    "type": "string"
                },
                "ContactType": {
                    "type": "string"
                },
                "Name": {
                    "type": "string"
                }
            }
        },
        "models.SSV1000010IObjPublic": {
            "title": "SSV1000010IObjPublic",
            "type": "object",
            "properties": {
                "BranchNo": {
                    "type": "string"
                },
                "TellerId": {
                    "type": "string"
                }
            }
        },
        "models.SSV1000010O": {
            "title": "SSV1000010O",
            "type": "object"
        }
    }
}